Biostat 212a Homework 2
…
4 ISL Exercise 4.8.13 (a)-(i) (50pts)

Answer:

(a)

library(ISLR2)
library(tidyverse)

 Weekly <- as_tibble(Weekly) %>% 
   print(width = Inf)

# A tibble: 1,089 × 9
    Year   Lag1   Lag2   Lag3   Lag4   Lag5 Volume  Today Direction
   <dbl>  <dbl>  <dbl>  <dbl>  <dbl>  <dbl>  <dbl>  <dbl> <fct>    
 1  1990  0.816  1.57  -3.94  -0.229 -3.48   0.155 -0.27  Down     
 2  1990 -0.27   0.816  1.57  -3.94  -0.229  0.149 -2.58  Down     
 3  1990 -2.58  -0.27   0.816  1.57  -3.94   0.160  3.51  Up       
 4  1990  3.51  -2.58  -0.27   0.816  1.57   0.162  0.712 Up       
 5  1990  0.712  3.51  -2.58  -0.27   0.816  0.154  1.18  Up       
 6  1990  1.18   0.712  3.51  -2.58  -0.27   0.154 -1.37  Down     
 7  1990 -1.37   1.18   0.712  3.51  -2.58   0.152  0.807 Up       
 8  1990  0.807 -1.37   1.18   0.712  3.51   0.132  0.041 Up       
 9  1990  0.041  0.807 -1.37   1.18   0.712  0.144  1.25  Up       
10  1990  1.25   0.041  0.807 -1.37   1.18   0.134 -2.68  Down     
# ℹ 1,079 more rows
…
